%YAML 1.1
%TAG !u! tag:unity3d.com,2011:
--- !u!65 &3366932523897249368
BoxCollider:
  m_ObjectHideFlags: 0
  m_CorrespondingSourceObject: {fileID: 0}
  m_PrefabInstance: {fileID: 0}
  m_PrefabAsset: {fileID: 0}
  m_GameObject: {fileID: 2246170072661120293}
  m_Material: {fileID: 0}
  m_IsTrigger: 0
  m_Enabled: 1
  serializedVersion: 2
  m_Size: {x: 0.21490471, y: 0.16318941, z: 0.088542506}
  m_Center: {x: -0.010446653, y: -0.060653303, z: -0.02786085}
--- !u!114 &5978835956976479161
MonoBehaviour:
  m_ObjectHideFlags: 0
  m_CorrespondingSourceObject: {fileID: 0}
  m_PrefabInstance: {fileID: 0}
  m_PrefabAsset: {fileID: 0}
  m_GameObject: {fileID: 2246170072661120293}
  m_Enabled: 1
  m_EditorHideFlags: 0
  m_Script: {fileID: 11500000, guid: 52d72cc6210cb7144a24acb7402222a6, type: 3}
  m_Name: 
  m_EditorClassIdentifier: 
  Use:
    Filter: 0
    IgnoreStartedOverGui: 1
    RequiredFingerCount: 0
    RequiredMouseButtons: 0
    RequiredSelectable: {fileID: 0}
  Camera: {fileID: 0}
  Relative: 0
  Dampening: -1
  remainingTranslation: {x: 0, y: 0, z: 0}
  remainingRotation: {x: 0, y: 0, z: 0, w: 1}
--- !u!114 &6120764832877227310
MonoBehaviour:
  m_ObjectHideFlags: 0
  m_CorrespondingSourceObject: {fileID: 0}
  m_PrefabInstance: {fileID: 0}
  m_PrefabAsset: {fileID: 0}
  m_GameObject: {fileID: 2246170072661120293}
  m_Enabled: 1
  m_EditorHideFlags: 0
  m_Script: {fileID: 11500000, guid: 4eda371e5375f454490a86f21559ee38, type: 3}
  m_Name: 
  m_EditorClassIdentifier: 
  Use:
    Filter: 0
    IgnoreStartedOverGui: 1
    RequiredFingerCount: 0
    RequiredMouseButtons: 0
    RequiredSelectable: {fileID: 0}
  Camera: {fileID: 0}
  Dampening: -1
  remainingTranslation: {x: 0, y: 0, z: 0}
--- !u!114 &114328774581184388
MonoBehaviour:
  m_ObjectHideFlags: 0
  m_CorrespondingSourceObject: {fileID: 0}
  m_PrefabInstance: {fileID: 0}
  m_PrefabAsset: {fileID: 0}
  m_GameObject: {fileID: 2246170072661120293}
  m_Enabled: 1
  m_EditorHideFlags: 0
  m_Script: {fileID: 11500000, guid: 7c73c1ab94e28d244827af556dca1ed2, type: 3}
  m_Name: 
  m_EditorClassIdentifier: 
  Use:
    Filter: 0
    IgnoreStartedOverGui: 1
    RequiredFingerCount: 0
    RequiredMouseButtons: 0
    RequiredSelectable: {fileID: 0}
  Camera: {fileID: 0}
  Relative: 0
  Dampening: -1
  remainingScale: {x: 0, y: 0, z: 0}
--- !u!1001 &9133575258849188278
PrefabInstance:
  m_ObjectHideFlags: 0
  serializedVersion: 2
  m_Modification:
    m_TransformParent: {fileID: 0}
    m_Modifications:
    - target: {fileID: 7055739329977830547, guid: 9c83f053d688ca0418214d285bd97ede,
        type: 3}
      propertyPath: m_Name
      value: kidneyTryDom3 Variant
      objectReference: {fileID: 0}
    - target: {fileID: 7055739329977733299, guid: 9c83f053d688ca0418214d285bd97ede,
        type: 3}
      propertyPath: m_LocalPosition.x
      value: 0
      objectReference: {fileID: 0}
    - target: {fileID: 7055739329977733299, guid: 9c83f053d688ca0418214d285bd97ede,
        type: 3}
      propertyPath: m_LocalPosition.y
      value: 0
      objectReference: {fileID: 0}
    - target: {fileID: 7055739329977733299, guid: 9c83f053d688ca0418214d285bd97ede,
        type: 3}
      propertyPath: m_LocalPosition.z
      value: 0
      objectReference: {fileID: 0}
    - target: {fileID: 7055739329977733299, guid: 9c83f053d688ca0418214d285bd97ede,
        type: 3}
      propertyPath: m_LocalRotation.x
      value: 0
      objectReference: {fileID: 0}
    - target: {fileID: 7055739329977733299, guid: 9c83f053d688ca0418214d285bd97ede,
        type: 3}
      propertyPath: m_LocalRotation.y
      value: 1
      objectReference: {fileID: 0}
    - target: {fileID: 7055739329977733299, guid: 9c83f053d688ca0418214d285bd97ede,
        type: 3}
      propertyPath: m_LocalRotation.z
      value: 0
      objectReference: {fileID: 0}
    - target: {fileID: 7055739329977733299, guid: 9c83f053d688ca0418214d285bd97ede,
        type: 3}
      propertyPath: m_LocalRotation.w
      value: 0
      objectReference: {fileID: 0}
    - target: {fileID: 7055739329977733299, guid: 9c83f053d688ca0418214d285bd97ede,
        type: 3}
      propertyPath: m_RootOrder
      value: 0
      objectReference: {fileID: 0}
    - target: {fileID: 7055739329977733299, guid: 9c83f053d688ca0418214d285bd97ede,
        type: 3}
      propertyPath: m_LocalEulerAnglesHint.x
      value: 0
      objectReference: {fileID: 0}
    - target: {fileID: 7055739329977733299, guid: 9c83f053d688ca0418214d285bd97ede,
        type: 3}
      propertyPath: m_LocalEulerAnglesHint.y
      value: 180
      objectReference: {fileID: 0}
    - target: {fileID: 7055739329977733299, guid: 9c83f053d688ca0418214d285bd97ede,
        type: 3}
      propertyPath: m_LocalEulerAnglesHint.z
      value: 0
      objectReference: {fileID: 0}
    m_RemovedComponents: []
  m_SourcePrefab: {fileID: 100100000, guid: 9c83f053d688ca0418214d285bd97ede, type: 3}
--- !u!1 &2246170072661120293 stripped
GameObject:
  m_CorrespondingSourceObject: {fileID: 7055739329977830547, guid: 9c83f053d688ca0418214d285bd97ede,
    type: 3}
  m_PrefabInstance: {fileID: 9133575258849188278}
  m_PrefabAsset: {fileID: 0}
