%YAML 1.1
%TAG !u! tag:unity3d.com,2011:
--- !u!1001 &8399420257195225546
PrefabInstance:
  m_ObjectHideFlags: 0
  serializedVersion: 2
  m_Modification:
    m_TransformParent: {fileID: 0}
    m_Modifications:
    - target: {fileID: 7921574116850539141, guid: 407fb698faac2b3458135c92a3c8851f,
        type: 3}
      propertyPath: m_Name
      value: kidneyTryDom3
      objectReference: {fileID: 0}
    - target: {fileID: 7921574116850239141, guid: 407fb698faac2b3458135c92a3c8851f,
        type: 3}
      propertyPath: m_LocalPosition.x
      value: -1.8796341
      objectReference: {fileID: 0}
    - target: {fileID: 7921574116850239141, guid: 407fb698faac2b3458135c92a3c8851f,
        type: 3}
      propertyPath: m_LocalPosition.y
      value: -1.5521111
      objectReference: {fileID: 0}
    - target: {fileID: 7921574116850239141, guid: 407fb698faac2b3458135c92a3c8851f,
        type: 3}
      propertyPath: m_LocalPosition.z
      value: -3.2414246
      objectReference: {fileID: 0}
    - target: {fileID: 7921574116850239141, guid: 407fb698faac2b3458135c92a3c8851f,
        type: 3}
      propertyPath: m_LocalRotation.x
      value: 0.7071068
      objectReference: {fileID: 0}
    - target: {fileID: 7921574116850239141, guid: 407fb698faac2b3458135c92a3c8851f,
        type: 3}
      propertyPath: m_LocalRotation.y
      value: 0
      objectReference: {fileID: 0}
    - target: {fileID: 7921574116850239141, guid: 407fb698faac2b3458135c92a3c8851f,
        type: 3}
      propertyPath: m_LocalRotation.z
      value: -0
      objectReference: {fileID: 0}
    - target: {fileID: 7921574116850239141, guid: 407fb698faac2b3458135c92a3c8851f,
        type: 3}
      propertyPath: m_LocalRotation.w
      value: 0.7071067
      objectReference: {fileID: 0}
    - target: {fileID: 7921574116850239141, guid: 407fb698faac2b3458135c92a3c8851f,
        type: 3}
      propertyPath: m_RootOrder
      value: 0
      objectReference: {fileID: 0}
    - target: {fileID: 7921574116850239141, guid: 407fb698faac2b3458135c92a3c8851f,
        type: 3}
      propertyPath: m_LocalEulerAnglesHint.x
      value: 0
      objectReference: {fileID: 0}
    - target: {fileID: 7921574116850239141, guid: 407fb698faac2b3458135c92a3c8851f,
        type: 3}
      propertyPath: m_LocalEulerAnglesHint.y
      value: 0
      objectReference: {fileID: 0}
    - target: {fileID: 7921574116850239141, guid: 407fb698faac2b3458135c92a3c8851f,
        type: 3}
      propertyPath: m_LocalEulerAnglesHint.z
      value: 0
      objectReference: {fileID: 0}
    m_RemovedComponents: []
  m_SourcePrefab: {fileID: 100100000, guid: 407fb698faac2b3458135c92a3c8851f, type: 3}
